Text as Data: Problem Set 01
…
# aggregate by year
docvars(poverty_corpus, "year") <- lubridate::year(docvars(poverty_corpus, "date"))

sent_by_year <- convert(dfm_sentiment, to="data.frame") %>%
  mutate(year = docvars(poverty_corpus, "year")) %>%
  group_by(year) %>%
  summarise(across(c(positive, negative), sum))

sent_by_year

# A tibble: 24 × 3
    year positive negative
   <dbl>    <dbl>    <dbl>
 1  1997      213       56
 2  1998      192       36
 3  2001      586      227
 4  2003      457      147
 5  2004      561      170
 6  2005      394      250
 7  2006      311      200
 8  2007     2052      731
 9  2008     1035      483
10  2010     1868     1268
# ℹ 14 more rows
…
